<?xml version="1.0" standalone="no"?>
<!DOCTYPE svg PUBLIC "-//W3C//DTD SVG 20010904//EN"
 "http://www.w3.org/TR/2001/REC-SVG-20010904/DTD/svg10.dtd">
<svg version="1.0" xmlns="http://www.w3.org/2000/svg"
 width="400.000000pt" height="400.000000pt" viewBox="0 0 400.000000 400.000000"
 preserveAspectRatio="xMidYMid meet">
<metadata>
Created by potrace 1.14, written by Peter Selinger 2001-2017
</metadata>
<g transform="translate(0.000000,400.000000) scale(0.100000,-0.100000)"
fill="#000000" stroke="none">
<path d="M1785 3918 c-210 -21 -429 -85 -630 -183 -135 -67 -330 -191 -330
-212 0 -6 -4 -15 -9 -20 -5 -5 -6 -3 -2 5 4 6 2 12 -3 12 -17 0 -13 -15 7 -33
10 -10 22 -14 27 -10 4 5 5 3 2 -3 -8 -14 86 -107 98 -97 4 5 5 3 2 -3 -8 -14
146 -167 158 -157 4 4 5 3 2 -3 -8 -14 66 -87 78 -77 4 5 5 3 2 -3 -3 -6 11
-28 32 -48 34 -33 42 -36 60 -26 12 6 18 16 15 22 -4 6 -3 8 3 5 6 -4 46 13
89 38 44 25 83 45 87 45 4 0 29 9 54 21 48 22 101 38 218 66 103 25 402 24
505 -1 41 -11 87 -19 102 -20 14 -1 24 -4 22 -7 -2 -3 15 -12 37 -18 142 -43
328 -153 446 -264 26 -25 46 -36 54 -32 8 5 10 4 5 -4 -8 -13 82 -118 97 -113
5 1 6 -2 3 -7 -4 -5 4 -22 17 -38 13 -15 38 -54 57 -85 18 -31 38 -54 43 -51
6 3 7 1 3 -5 -7 -12 23 -82 36 -82 5 0 6 -4 3 -10 -3 -5 3 -31 14 -57 87 -207
108 -534 47 -762 -14 -52 -23 -98 -20 -103 3 -4 1 -8 -4 -8 -13 0 -33 -59 -25
-74 3 -6 3 -8 -1 -4 -9 7 -102 -172 -97 -187 1 -5 -1 -7 -5 -3 -4 5 -16 -6
-26 -24 l-20 -31 108 -108 c59 -59 112 -105 117 -102 6 3 7 2 4 -4 -8 -13 97
-116 108 -106 4 5 5 3 2 -3 -3 -6 25 -41 63 -78 l68 -68 42 56 c25 32 39 60
34 67 -4 7 -3 9 3 6 25 -16 199 305 188 346 -4 15 -3 18 3 8 7 -10 14 0 27 35
9 27 23 66 31 86 7 20 27 95 43 166 94 408 49 856 -125 1232 -24 52 -48 94
-54 93 -5 -2 -6 5 -3 14 4 11 3 14 -5 9 -7 -4 -10 -2 -7 6 6 16 -63 130 -75
123 -5 -3 -12 0 -16 6 -5 8 -3 9 6 4 8 -5 11 -3 8 6 -3 8 -11 13 -17 11 -7 -1
-10 2 -6 8 11 18 -138 209 -158 202 -5 -1 -6 2 -3 6 3 5 -4 18 -16 28 -12 11
-18 13 -13 5 5 -10 4 -12 -4 -7 -6 4 -9 11 -6 15 4 8 -66 78 -157 158 -64 56
-137 105 -148 98 -11 -7 -72 39 -64 48 7 6 -37 32 -48 29 -5 -1 -8 2 -8 7 0 9
-136 79 -225 116 -288 119 -622 166 -950 133z m1539 -527 c3 -4 -4 -7 -14 -6
-27 2 -33 10 -10 12 11 1 22 -2 24 -6z m-2303 -61 c9 13 10 13 6 0 -2 -8 -10
-15 -17 -15 -7 0 -15 7 -17 15 -4 13 -3 13 6 0 10 -13 12 -13 22 0z m2389 -36
c0 -8 -19 -13 -24 -6 -3 5 1 9 9 9 8 0 15 -2 15 -3z m-845 -114 c-3 -5 -1 -10
6 -10 7 0 10 -3 6 -6 -9 -9 -28 6 -22 17 4 5 8 9 11 9 3 0 2 -4 -1 -10z
m-1384 -23 c-10 -9 -11 -8 -5 6 3 10 9 15 12 12 3 -3 0 -11 -7 -18z m1556 -53
c-3 -3 -12 -4 -19 -1 -8 3 -5 6 6 6 11 1 17 -2 13 -5z m113 -114 c0 -5 -2 -10
-4 -10 -3 0 -8 5 -11 10 -3 6 -1 10 4 10 6 0 11 -4 11 -10z m251 -283 c-10 -9
-11 -8 -5 6 3 10 9 15 12 12 3 -3 0 -11 -7 -18z m0 -1470 c-10 -9 -11 -8 -5 6
3 10 9 15 12 12 3 -3 0 -11 -7 -18z m65 -67 c0 -12 -4 -16 -9 -11 -5 5 -6 14
-3 20 10 15 12 14 12 -9z m95 -93 c-10 -9 -11 -8 -5 6 3 10 9 15 12 12 3 -3 0
-11 -7 -18z m84 -47 c-3 -5 -12 -10 -18 -10 -7 0 -6 4 3 10 19 12 23 12 15 0z
m5 -50 c6 -11 8 -20 6 -20 -3 0 -10 9 -16 20 -6 11 -8 20 -6 20 3 0 10 -9 16
-20z m270 -14 c0 -2 -8 -10 -17 -17 -16 -13 -17 -12 -4 4 13 16 21 21 21 13z
m-214 -36 c0 -12 -4 -16 -9 -11 -5 5 -6 14 -3 20 10 15 12 14 12 -9z"/>
<path d="M3044 3611 c11 -11 23 -21 28 -21 14 0 -1 19 -25 31 -22 12 -22 12
-3 -10z"/>
<path d="M412 3103 c-180 -265 -291 -549 -332 -851 -14 -108 -14 -384 0 -498
94 -726 603 -1348 1295 -1583 217 -73 391 -101 630 -101 395 1 736 105 1069
328 61 40 113 76 116 78 2 3 -103 112 -235 244 l-239 239 -40 -25 c-143 -88
-325 -155 -483 -179 -563 -85 -1096 196 -1338 707 -83 175 -117 331 -118 533
0 244 60 458 190 677 l28 48 -235 235 c-129 129 -238 235 -241 235 -4 0 -34
-39 -67 -87z"/>
</g>
</svg>
